{
  "configVersion": 2,
  "packages": [
    {
      "name": "ansicolor",
      "rootUri": "file:///Users/aseril/Developer/flutter/.pub-cache/hosted/pub.dartlang.org/ansicolor-1.1.1",
      "packageUri": "lib/",
      "languageVersion": "2.0"
    },
    {
      "name": "archive",
      "rootUri": "file:///Users/aseril/Developer/flutter/.pub-cache/hosted/pub.dartlang.org/archive-2.0.13",
      "packageUri": "lib/",
      "languageVersion": "2.0"
    },
    {
      "name": "args",
      "rootUri": "file:///Users/aseril/Developer/flutter/.pub-cache/hosted/pub.dartlang.org/args-1.6.0",
      "packageUri": "lib/",
      "languageVersion": "2.3"
    },
    {
      "name": "async",
      "rootUri": "file:///Users/aseril/Developer/flutter/.pub-cache/hosted/pub.dartlang.org/async-2.5.0-nullsafety.1",
      "packageUri": "lib/",
      "languageVersion": "2.10"
    },
    {
      "name": "audio_recorder",
      "rootUri": "file:///Users/aseril/Developer/flutter/.pub-cache/hosted/pub.dartlang.org/audio_recorder-1.0.2",
      "packageUri": "lib/",
      "languageVersion": "2.0"
    },
    {
      "name": "audioplayers",
      "rootUri": "file:///Users/aseril/Developer/flutter/.pub-cache/hosted/pub.dartlang.org/audioplayers-0.16.2",
      "packageUri": "lib/",
      "languageVersion": "2.6"
    },
    {
      "name": "boolean_selector",
      "rootUri": "file:///Users/aseril/Developer/flutter/.pub-cache/hosted/pub.dartlang.org/boolean_selector-2.1.0-nullsafety.1",
      "packageUri": "lib/",
      "languageVersion": "2.10"
    },
    {
      "name": "cached_network_image",
      "rootUri": "file:///Users/aseril/Developer/flutter/.pub-cache/hosted/pub.dartlang.org/cached_network_image-2.4.1",
      "packageUri": "lib/",
      "languageVersion": "2.9"
    },
    {
      "name": "characters",
      "rootUri": "file:///Users/aseril/Developer/flutter/.pub-cache/hosted/pub.dartlang.org/characters-1.1.0-nullsafety.3",
      "packageUri": "lib/",
      "languageVersion": "2.10"
    },
    {
      "name": "charcode",
      "rootUri": "file:///Users/aseril/Developer/flutter/.pub-cache/hosted/pub.dartlang.org/charcode-1.2.0-nullsafety.1",
      "packageUri": "lib/",
      "languageVersion": "2.10"
    },
    {
      "name": "clock",
      "rootUri": "file:///Users/aseril/Developer/flutter/.pub-cache/hosted/pub.dartlang.org/clock-1.1.0-nullsafety.1",
      "packageUri": "lib/",
      "languageVersion": "2.10"
    },
    {
      "name": "cloud_firestore",
      "rootUri": "file:///Users/aseril/Developer/flutter/.pub-cache/hosted/pub.dartlang.org/cloud_firestore-0.14.4",
      "packageUri": "lib/",
      "languageVersion": "2.1"
    },
    {
      "name": "cloud_firestore_platform_interface",
      "rootUri": "file:///Users/aseril/Developer/flutter/.pub-cache/hosted/pub.dartlang.org/cloud_firestore_platform_interface-2.2.1",
      "packageUri": "lib/",
      "languageVersion": "2.0"
    },
    {
      "name": "cloud_firestore_web",
      "rootUri": "file:///Users/aseril/Developer/flutter/.pub-cache/hosted/pub.dartlang.org/cloud_firestore_web-0.2.1+2",
      "packageUri": "lib/",
      "languageVersion": "2.1"
    },
    {
      "name": "collection",
      "rootUri": "file:///Users/aseril/Developer/flutter/.pub-cache/hosted/pub.dartlang.org/collection-1.15.0-nullsafety.3",
      "packageUri": "lib/",
      "languageVersion": "2.10"
    },
    {
      "name": "console_log_handler",
      "rootUri": "file:///Users/aseril/Developer/flutter/.pub-cache/hosted/pub.dartlang.org/console_log_handler-1.1.6",
      "packageUri": "lib/",
      "languageVersion": "2.0"
    },
    {
      "name": "convert",
      "rootUri": "file:///Users/aseril/Developer/flutter/.pub-cache/hosted/pub.dartlang.org/convert-2.1.1",
      "packageUri": "lib/",
      "languageVersion": "1.17"
    },
    {
      "name": "crypto",
      "rootUri": "file:///Users/aseril/Developer/flutter/.pub-cache/hosted/pub.dartlang.org/crypto-2.1.5",
      "packageUri": "lib/",
      "languageVersion": "2.3"
    },
    {
      "name": "cupertino_icons",
      "rootUri": "file:///Users/aseril/Developer/flutter/.pub-cache/hosted/pub.dartlang.org/cupertino_icons-1.0.0",
      "packageUri": "lib/",
      "languageVersion": "2.0"
    },
    {
      "name": "equatable",
      "rootUri": "file:///Users/aseril/Developer/flutter/.pub-cache/hosted/pub.dartlang.org/equatable-1.2.5",
      "packageUri": "lib/",
      "languageVersion": "2.0"
    },
    {
      "name": "fake_async",
      "rootUri": "file:///Users/aseril/Developer/flutter/.pub-cache/hosted/pub.dartlang.org/fake_async-1.2.0-nullsafety.1",
      "packageUri": "lib/",
      "languageVersion": "2.10"
    },
    {
      "name": "ffi",
      "rootUri": "file:///Users/aseril/Developer/flutter/.pub-cache/hosted/pub.dartlang.org/ffi-0.1.3",
      "packageUri": "lib/",
      "languageVersion": "2.6"
    },
    {
      "name": "file",
      "rootUri": "file:///Users/aseril/Developer/flutter/.pub-cache/hosted/pub.dartlang.org/file-5.2.1",
      "packageUri": "lib/",
      "languageVersion": "2.2"
    },
    {
      "name": "firebase_auth",
      "rootUri": "file:///Users/aseril/Developer/flutter/.pub-cache/hosted/pub.dartlang.org/firebase_auth-0.18.4+1",
      "packageUri": "lib/",
      "languageVersion": "2.0"
    },
    {
      "name": "firebase_auth_platform_interface",
      "rootUri": "file:///Users/aseril/Developer/flutter/.pub-cache/hosted/pub.dartlang.org/firebase_auth_platform_interface-2.1.4",
      "packageUri": "lib/",
      "languageVersion": "2.0"
    },
    {
      "name": "firebase_auth_web",
      "rootUri": "file:///Users/aseril/Developer/flutter/.pub-cache/hosted/pub.dartlang.org/firebase_auth_web-0.3.2+3",
      "packageUri": "lib/",
      "languageVersion": "2.0"
    },
    {
      "name": "firebase_core",
      "rootUri": "file:///Users/aseril/Developer/flutter/.pub-cache/hosted/pub.dartlang.org/firebase_core-0.5.3",
      "packageUri": "lib/",
      "languageVersion": "2.1"
    },
    {
      "name": "firebase_core_platform_interface",
      "rootUri": "file:///Users/aseril/Developer/flutter/.pub-cache/hosted/pub.dartlang.org/firebase_core_platform_interface-2.1.0",
      "packageUri": "lib/",
      "languageVersion": "2.1"
    },
    {
      "name": "firebase_core_web",
      "rootUri": "file:///Users/aseril/Developer/flutter/.pub-cache/hosted/pub.dartlang.org/firebase_core_web-0.2.1+1",
      "packageUri": "lib/",
      "languageVersion": "2.1"
    },
    {
      "name": "firebase_messaging",
      "rootUri": "file:///Users/aseril/Developer/flutter/.pub-cache/hosted/pub.dartlang.org/firebase_messaging-7.0.3",
      "packageUri": "lib/",
      "languageVersion": "2.0"
    },
    {
      "name": "firebase_storage",
      "rootUri": "file:///Users/aseril/Developer/flutter/.pub-cache/hosted/pub.dartlang.org/firebase_storage-5.2.0",
      "packageUri": "lib/",
      "languageVersion": "2.0"
    },
    {
      "name": "firebase_storage_platform_interface",
      "rootUri": "file:///Users/aseril/Developer/flutter/.pub-cache/hosted/pub.dartlang.org/firebase_storage_platform_interface-1.0.2",
      "packageUri": "lib/",
      "languageVersion": "2.0"
    },
    {
      "name": "firebase_storage_web",
      "rootUri": "file:///Users/aseril/Developer/flutter/.pub-cache/hosted/pub.dartlang.org/firebase_storage_web-0.1.1+1",
      "packageUri": "lib/",
      "languageVersion": "2.7"
    },
    {
      "name": "flutter",
      "rootUri": "file:///Users/aseril/Developer/flutter/packages/flutter",
      "packageUri": "lib/",
      "languageVersion": "2.10"
    },
    {
      "name": "flutter_blurhash",
      "rootUri": "file:///Users/aseril/Developer/flutter/.pub-cache/hosted/pub.dartlang.org/flutter_blurhash-0.5.0",
      "packageUri": "lib/",
      "languageVersion": "2.4"
    },
    {
      "name": "flutter_cache_manager",
      "rootUri": "file:///Users/aseril/Developer/flutter/.pub-cache/hosted/pub.dartlang.org/flutter_cache_manager-2.0.0",
      "packageUri": "lib/",
      "languageVersion": "2.6"
    },
    {
      "name": "flutter_facebook_login",
      "rootUri": "file:///Users/aseril/Developer/flutter/.pub-cache/hosted/pub.dartlang.org/flutter_facebook_login-3.0.0",
      "packageUri": "lib/",
      "languageVersion": "2.0"
    },
    {
      "name": "flutter_google_places",
      "rootUri": "file:///Users/aseril/Developer/flutter/.pub-cache/hosted/pub.dartlang.org/flutter_google_places-0.2.6",
      "packageUri": "lib/",
      "languageVersion": "2.0"
    },
    {
      "name": "flutter_launcher_icons",
      "rootUri": "file:///Users/aseril/Developer/flutter/.pub-cache/hosted/pub.dartlang.org/flutter_launcher_icons-0.7.5",
      "packageUri": "lib/",
      "languageVersion": "2.2"
    },
    {
      "name": "flutter_plugin_android_lifecycle",
      "rootUri": "file:///Users/aseril/Developer/flutter/.pub-cache/hosted/pub.dartlang.org/flutter_plugin_android_lifecycle-1.0.11",
      "packageUri": "lib/",
      "languageVersion": "2.1"
    },
    {
      "name": "flutter_rating_bar",
      "rootUri": "file:///Users/aseril/Developer/flutter/.pub-cache/hosted/pub.dartlang.org/flutter_rating_bar-3.2.0+1",
      "packageUri": "lib/",
      "languageVersion": "2.5"
    },
    {
      "name": "flutter_test",
      "rootUri": "file:///Users/aseril/Developer/flutter/packages/flutter_test",
      "packageUri": "lib/",
      "languageVersion": "2.2"
    },
    {
      "name": "flutter_web_plugins",
      "rootUri": "file:///Users/aseril/Developer/flutter/packages/flutter_web_plugins",
      "packageUri": "lib/",
      "languageVersion": "2.0"
    },
    {
      "name": "flutter_webrtc",
      "rootUri": "file:///Users/aseril/Developer/flutter/.pub-cache/hosted/pub.dartlang.org/flutter_webrtc-0.4.1",
      "packageUri": "lib/",
      "languageVersion": "2.2"
    },
    {
      "name": "google_maps_flutter",
      "rootUri": "file:///Users/aseril/Developer/flutter/.pub-cache/hosted/pub.dartlang.org/google_maps_flutter-1.0.6",
      "packageUri": "lib/",
      "languageVersion": "2.1"
    },
    {
      "name": "google_maps_flutter_platform_interface",
      "rootUri": "file:///Users/aseril/Developer/flutter/.pub-cache/hosted/pub.dartlang.org/google_maps_flutter_platform_interface-1.0.5",
      "packageUri": "lib/",
      "languageVersion": "2.3"
    },
    {
      "name": "google_maps_webservice",
      "rootUri": "file:///Users/aseril/Developer/flutter/.pub-cache/hosted/pub.dartlang.org/google_maps_webservice-0.0.18",
      "packageUri": "lib/",
      "languageVersion": "1.20"
    },
    {
      "name": "http",
      "rootUri": "file:///Users/aseril/Developer/flutter/.pub-cache/hosted/pub.dartlang.org/http-0.12.2",
      "packageUri": "lib/",
      "languageVersion": "2.4"
    },
    {
      "name": "http_parser",
      "rootUri": "file:///Users/aseril/Developer/flutter/.pub-cache/hosted/pub.dartlang.org/http_parser-3.1.4",
      "packageUri": "lib/",
      "languageVersion": "2.3"
    },
    {
      "name": "image",
      "rootUri": "file:///Users/aseril/Developer/flutter/.pub-cache/hosted/pub.dartlang.org/image-2.1.19",
      "packageUri": "lib/",
      "languageVersion": "2.0"
    },
    {
      "name": "image_picker",
      "rootUri": "file:///Users/aseril/Developer/flutter/.pub-cache/hosted/pub.dartlang.org/image_picker-0.6.7+15",
      "packageUri": "lib/",
      "languageVersion": "2.1"
    },
    {
      "name": "image_picker_platform_interface",
      "rootUri": "file:///Users/aseril/Developer/flutter/.pub-cache/hosted/pub.dartlang.org/image_picker_platform_interface-1.1.1",
      "packageUri": "lib/",
      "languageVersion": "2.5"
    },
    {
      "name": "in_app_purchase",
      "rootUri": "file:///Users/aseril/Developer/flutter/.pub-cache/hosted/pub.dartlang.org/in_app_purchase-0.3.4+16",
      "packageUri": "lib/",
      "languageVersion": "2.3"
    },
    {
      "name": "intl",
      "rootUri": "file:///Users/aseril/Developer/flutter/.pub-cache/hosted/pub.dartlang.org/intl-0.16.1",
      "packageUri": "lib/",
      "languageVersion": "2.5"
    },
    {
      "name": "intl_phone_number_input",
      "rootUri": "file:///Users/aseril/Developer/flutter/.pub-cache/hosted/pub.dartlang.org/intl_phone_number_input-0.5.2+2",
      "packageUri": "lib/",
      "languageVersion": "2.6"
    },
    {
      "name": "js",
      "rootUri": "file:///Users/aseril/Developer/flutter/.pub-cache/hosted/pub.dartlang.org/js-0.6.2",
      "packageUri": "lib/",
      "languageVersion": "2.0"
    },
    {
      "name": "json_annotation",
      "rootUri": "file:///Users/aseril/Developer/flutter/.pub-cache/hosted/pub.dartlang.org/json_annotation-3.1.1",
      "packageUri": "lib/",
      "languageVersion": "2.7"
    },
    {
      "name": "latlong",
      "rootUri": "file:///Users/aseril/Developer/flutter/.pub-cache/hosted/pub.dartlang.org/latlong-0.6.1",
      "packageUri": "lib/",
      "languageVersion": "2.0"
    },
    {
      "name": "libphonenumber",
      "rootUri": "file:///Users/aseril/Developer/flutter/.pub-cache/hosted/pub.dartlang.org/libphonenumber-1.0.2",
      "packageUri": "lib/",
      "languageVersion": "1.19"
    },
    {
      "name": "location",
      "rootUri": "file:///Users/aseril/Developer/flutter/.pub-cache/hosted/pub.dartlang.org/location-3.1.0",
      "packageUri": "lib/",
      "languageVersion": "2.1"
    },
    {
      "name": "location_platform_interface",
      "rootUri": "file:///Users/aseril/Developer/flutter/.pub-cache/hosted/pub.dartlang.org/location_platform_interface-1.0.1",
      "packageUri": "lib/",
      "languageVersion": "2.4"
    },
    {
      "name": "location_web",
      "rootUri": "file:///Users/aseril/Developer/flutter/.pub-cache/hosted/pub.dartlang.org/location_web-1.0.0",
      "packageUri": "lib/",
      "languageVersion": "2.1"
    },
    {
      "name": "logging",
      "rootUri": "file:///Users/aseril/Developer/flutter/.pub-cache/hosted/pub.dartlang.org/logging-0.11.4",
      "packageUri": "lib/",
      "languageVersion": "2.0"
    },
    {
      "name": "matcher",
      "rootUri": "file:///Users/aseril/Developer/flutter/.pub-cache/hosted/pub.dartlang.org/matcher-0.12.10-nullsafety.1",
      "packageUri": "lib/",
      "languageVersion": "2.10"
    },
    {
      "name": "meta",
      "rootUri": "file:///Users/aseril/Developer/flutter/.pub-cache/hosted/pub.dartlang.org/meta-1.3.0-nullsafety.3",
      "packageUri": "lib/",
      "languageVersion": "2.10"
    },
    {
      "name": "nested",
      "rootUri": "file:///Users/aseril/Developer/flutter/.pub-cache/hosted/pub.dartlang.org/nested-0.0.4",
      "packageUri": "lib/",
      "languageVersion": "2.2"
    },
    {
      "name": "octo_image",
      "rootUri": "file:///Users/aseril/Developer/flutter/.pub-cache/hosted/pub.dartlang.org/octo_image-0.3.0",
      "packageUri": "lib/",
      "languageVersion": "2.7"
    },
    {
      "name": "page_view_indicators",
      "rootUri": "file:///Users/aseril/Developer/flutter/.pub-cache/hosted/pub.dartlang.org/page_view_indicators-1.4.0",
      "packageUri": "lib/",
      "languageVersion": "2.7"
    },
    {
      "name": "path",
      "rootUri": "file:///Users/aseril/Developer/flutter/.pub-cache/hosted/pub.dartlang.org/path-1.8.0-nullsafety.1",
      "packageUri": "lib/",
      "languageVersion": "2.10"
    },
    {
      "name": "path_provider",
      "rootUri": "file:///Users/aseril/Developer/flutter/.pub-cache/hosted/pub.dartlang.org/path_provider-1.6.24",
      "packageUri": "lib/",
      "languageVersion": "2.1"
    },
    {
      "name": "path_provider_linux",
      "rootUri": "file:///Users/aseril/Developer/flutter/.pub-cache/hosted/pub.dartlang.org/path_provider_linux-0.0.1+2",
      "packageUri": "lib/",
      "languageVersion": "2.1"
    },
    {
      "name": "path_provider_macos",
      "rootUri": "file:///Users/aseril/Developer/flutter/.pub-cache/hosted/pub.dartlang.org/path_provider_macos-0.0.4+6",
      "packageUri": "lib/",
      "languageVersion": "2.1"
    },
    {
      "name": "path_provider_platform_interface",
      "rootUri": "file:///Users/aseril/Developer/flutter/.pub-cache/hosted/pub.dartlang.org/path_provider_platform_interface-1.0.4",
      "packageUri": "lib/",
      "languageVersion": "2.1"
    },
    {
      "name": "path_provider_windows",
      "rootUri": "file:///Users/aseril/Developer/flutter/.pub-cache/hosted/pub.dartlang.org/path_provider_windows-0.0.4+3",
      "packageUri": "lib/",
      "languageVersion": "2.1"
    },
    {
      "name": "pedantic",
      "rootUri": "file:///Users/aseril/Developer/flutter/.pub-cache/hosted/pub.dartlang.org/pedantic-1.9.2",
      "packageUri": "lib/",
      "languageVersion": "2.1"
    },
    {
      "name": "permission_handler",
      "rootUri": "file:///Users/aseril/Developer/flutter/.pub-cache/hosted/pub.dartlang.org/permission_handler-5.0.1+1",
      "packageUri": "lib/",
      "languageVersion": "2.7"
    },
    {
      "name": "permission_handler_platform_interface",
      "rootUri": "file:///Users/aseril/Developer/flutter/.pub-cache/hosted/pub.dartlang.org/permission_handler_platform_interface-2.0.1",
      "packageUri": "lib/",
      "languageVersion": "2.6"
    },
    {
      "name": "petitparser",
      "rootUri": "file:///Users/aseril/Developer/flutter/.pub-cache/hosted/pub.dartlang.org/petitparser-3.1.0",
      "packageUri": "lib/",
      "languageVersion": "2.7"
    },
    {
      "name": "photo_view",
      "rootUri": "file:///Users/aseril/Developer/flutter/.pub-cache/hosted/pub.dartlang.org/photo_view-0.10.3",
      "packageUri": "lib/",
      "languageVersion": "2.6"
    },
    {
      "name": "pin_code_fields",
      "rootUri": "file:///Users/aseril/Developer/flutter/.pub-cache/hosted/pub.dartlang.org/pin_code_fields-6.0.1",
      "packageUri": "lib/",
      "languageVersion": "2.7"
    },
    {
      "name": "platform",
      "rootUri": "file:///Users/aseril/Developer/flutter/.pub-cache/hosted/pub.dartlang.org/platform-2.2.1",
      "packageUri": "lib/",
      "languageVersion": "1.24"
    },
    {
      "name": "plugin_platform_interface",
      "rootUri": "file:///Users/aseril/Developer/flutter/.pub-cache/hosted/pub.dartlang.org/plugin_platform_interface-1.0.3",
      "packageUri": "lib/",
      "languageVersion": "2.1"
    },
    {
      "name": "process",
      "rootUri": "file:///Users/aseril/Developer/flutter/.pub-cache/hosted/pub.dartlang.org/process-3.0.13",
      "packageUri": "lib/",
      "languageVersion": "2.0"
    },
    {
      "name": "progress_dialog",
      "rootUri": "file:///Users/aseril/Developer/flutter/.pub-cache/hosted/pub.dartlang.org/progress_dialog-1.2.4",
      "packageUri": "lib/",
      "languageVersion": "2.7"
    },
    {
      "name": "provider",
      "rootUri": "file:///Users/aseril/Developer/flutter/.pub-cache/hosted/pub.dartlang.org/provider-4.3.2+3",
      "packageUri": "lib/",
      "languageVersion": "2.7"
    },
    {
      "name": "quiver",
      "rootUri": "file:///Users/aseril/Developer/flutter/.pub-cache/hosted/pub.dartlang.org/quiver-2.1.5",
      "packageUri": "lib/",
      "languageVersion": "2.0"
    },
    {
      "name": "rxdart",
      "rootUri": "file:///Users/aseril/Developer/flutter/.pub-cache/hosted/pub.dartlang.org/rxdart-0.24.1",
      "packageUri": "lib/",
      "languageVersion": "2.6"
    },
    {
      "name": "shared_preferences",
      "rootUri": "file:///Users/aseril/Developer/flutter/.pub-cache/hosted/pub.dartlang.org/shared_preferences-0.5.12+4",
      "packageUri": "lib/",
      "languageVersion": "2.1"
    },
    {
      "name": "shared_preferences_linux",
      "rootUri": "file:///Users/aseril/Developer/flutter/.pub-cache/hosted/pub.dartlang.org/shared_preferences_linux-0.0.2+4",
      "packageUri": "lib/",
      "languageVersion": "2.1"
    },
    {
      "name": "shared_preferences_macos",
      "rootUri": "file:///Users/aseril/Developer/flutter/.pub-cache/hosted/pub.dartlang.org/shared_preferences_macos-0.0.1+11",
      "packageUri": "lib/",
      "languageVersion": "2.1"
    },
    {
      "name": "shared_preferences_platform_interface",
      "rootUri": "file:///Users/aseril/Developer/flutter/.pub-cache/hosted/pub.dartlang.org/shared_preferences_platform_interface-1.0.4",
      "packageUri": "lib/",
      "languageVersion": "2.1"
    },
    {
      "name": "shared_preferences_web",
      "rootUri": "file:///Users/aseril/Developer/flutter/.pub-cache/hosted/pub.dartlang.org/shared_preferences_web-0.1.2+7",
      "packageUri": "lib/",
      "languageVersion": "2.1"
    },
    {
      "name": "shared_preferences_windows",
      "rootUri": "file:///Users/aseril/Developer/flutter/.pub-cache/hosted/pub.dartlang.org/shared_preferences_windows-0.0.1+3",
      "packageUri": "lib/",
      "languageVersion": "2.1"
    },
    {
      "name": "sky_engine",
      "rootUri": "file:///Users/aseril/Developer/flutter/bin/cache/pkg/sky_engine",
      "packageUri": "lib/",
      "languageVersion": "1.11"
    },
    {
      "name": "smooth_page_indicator",
      "rootUri": "file:///Users/aseril/Developer/flutter/.pub-cache/hosted/pub.dartlang.org/smooth_page_indicator-0.2.0",
      "packageUri": "lib/",
      "languageVersion": "2.5"
    },
    {
      "name": "source_span",
      "rootUri": "file:///Users/aseril/Developer/flutter/.pub-cache/hosted/pub.dartlang.org/source_span-1.8.0-nullsafety.2",
      "packageUri": "lib/",
      "languageVersion": "2.10"
    },
    {
      "name": "sqflite",
      "rootUri": "file:///Users/aseril/Developer/flutter/.pub-cache/hosted/pub.dartlang.org/sqflite-1.3.2+1",
      "packageUri": "lib/",
      "languageVersion": "2.10"
    },
    {
      "name": "sqflite_common",
      "rootUri": "file:///Users/aseril/Developer/flutter/.pub-cache/hosted/pub.dartlang.org/sqflite_common-1.0.2+1",
      "packageUri": "lib/",
      "languageVersion": "2.7"
    },
    {
      "name": "stack_trace",
      "rootUri": "file:///Users/aseril/Developer/flutter/.pub-cache/hosted/pub.dartlang.org/stack_trace-1.10.0-nullsafety.1",
      "packageUri": "lib/",
      "languageVersion": "2.10"
    },
    {
      "name": "stream_channel",
      "rootUri": "file:///Users/aseril/Developer/flutter/.pub-cache/hosted/pub.dartlang.org/stream_channel-2.1.0-nullsafety.1",
      "packageUri": "lib/",
      "languageVersion": "2.10"
    },
    {
      "name": "stream_transform",
      "rootUri": "file:///Users/aseril/Developer/flutter/.pub-cache/hosted/pub.dartlang.org/stream_transform-1.2.0",
      "packageUri": "lib/",
      "languageVersion": "2.6"
    },
    {
      "name": "string_scanner",
      "rootUri": "file:///Users/aseril/Developer/flutter/.pub-cache/hosted/pub.dartlang.org/string_scanner-1.1.0-nullsafety.1",
      "packageUri": "lib/",
      "languageVersion": "2.10"
    },
    {
      "name": "synchronized",
      "rootUri": "file:///Users/aseril/Developer/flutter/.pub-cache/hosted/pub.dartlang.org/synchronized-2.2.0+2",
      "packageUri": "lib/",
      "languageVersion": "2.8"
    },
    {
      "name": "term_glyph",
      "rootUri": "file:///Users/aseril/Developer/flutter/.pub-cache/hosted/pub.dartlang.org/term_glyph-1.2.0-nullsafety.1",
      "packageUri": "lib/",
      "languageVersion": "2.10"
    },
    {
      "name": "test_api",
      "rootUri": "file:///Users/aseril/Developer/flutter/.pub-cache/hosted/pub.dartlang.org/test_api-0.2.19-nullsafety.2",
      "packageUri": "lib/",
      "languageVersion": "2.10"
    },
    {
      "name": "typed_data",
      "rootUri": "file:///Users/aseril/Developer/flutter/.pub-cache/hosted/pub.dartlang.org/typed_data-1.3.0-nullsafety.3",
      "packageUri": "lib/",
      "languageVersion": "2.10"
    },
    {
      "name": "url_launcher",
      "rootUri": "file:///Users/aseril/Developer/flutter/.pub-cache/hosted/pub.dartlang.org/url_launcher-5.7.10",
      "packageUri": "lib/",
      "languageVersion": "2.1"
    },
    {
      "name": "url_launcher_linux",
      "rootUri": "file:///Users/aseril/Developer/flutter/.pub-cache/hosted/pub.dartlang.org/url_launcher_linux-0.0.1+4",
      "packageUri": "lib/",
      "languageVersion": "2.1"
    },
    {
      "name": "url_launcher_macos",
      "rootUri": "file:///Users/aseril/Developer/flutter/.pub-cache/hosted/pub.dartlang.org/url_launcher_macos-0.0.1+9",
      "packageUri": "lib/",
      "languageVersion": "2.1"
    },
    {
      "name": "url_launcher_platform_interface",
      "rootUri": "file:///Users/aseril/Developer/flutter/.pub-cache/hosted/pub.dartlang.org/url_launcher_platform_interface-1.0.9",
      "packageUri": "lib/",
      "languageVersion": "2.1"
    },
    {
      "name": "url_launcher_web",
      "rootUri": "file:///Users/aseril/Developer/flutter/.pub-cache/hosted/pub.dartlang.org/url_launcher_web-0.1.5+1",
      "packageUri": "lib/",
      "languageVersion": "2.2"
    },
    {
      "name": "url_launcher_windows",
      "rootUri": "file:///Users/aseril/Developer/flutter/.pub-cache/hosted/pub.dartlang.org/url_launcher_windows-0.0.1+3",
      "packageUri": "lib/",
      "languageVersion": "2.1"
    },
    {
      "name": "uuid",
      "rootUri": "file:///Users/aseril/Developer/flutter/.pub-cache/hosted/pub.dartlang.org/uuid-2.2.2",
      "packageUri": "lib/",
      "languageVersion": "2.2"
    },
    {
      "name": "validate",
      "rootUri": "file:///Users/aseril/Developer/flutter/.pub-cache/hosted/pub.dartlang.org/validate-1.7.0",
      "packageUri": "lib/",
      "languageVersion": "2.0"
    },
    {
      "name": "vector_math",
      "rootUri": "file:///Users/aseril/Developer/flutter/.pub-cache/hosted/pub.dartlang.org/vector_math-2.1.0-nullsafety.3",
      "packageUri": "lib/",
      "languageVersion": "2.10"
    },
    {
      "name": "video_player",
      "rootUri": "file:///Users/aseril/Developer/flutter/.pub-cache/hosted/pub.dartlang.org/video_player-1.0.1",
      "packageUri": "lib/",
      "languageVersion": "2.8"
    },
    {
      "name": "video_player_platform_interface",
      "rootUri": "file:///Users/aseril/Developer/flutter/.pub-cache/hosted/pub.dartlang.org/video_player_platform_interface-2.2.0",
      "packageUri": "lib/",
      "languageVersion": "2.8"
    },
    {
      "name": "video_player_web",
      "rootUri": "file:///Users/aseril/Developer/flutter/.pub-cache/hosted/pub.dartlang.org/video_player_web-0.1.4+1",
      "packageUri": "lib/",
      "languageVersion": "2.8"
    },
    {
      "name": "video_thumbnail",
      "rootUri": "file:///Users/aseril/Developer/flutter/.pub-cache/hosted/pub.dartlang.org/video_thumbnail-0.2.5+1",
      "packageUri": "lib/",
      "languageVersion": "2.1"
    },
    {
      "name": "win32",
      "rootUri": "file:///Users/aseril/Developer/flutter/.pub-cache/hosted/pub.dartlang.org/win32-1.7.4",
      "packageUri": "lib/",
      "languageVersion": "2.7"
    },
    {
      "name": "xdg_directories",
      "rootUri": "file:///Users/aseril/Developer/flutter/.pub-cache/hosted/pub.dartlang.org/xdg_directories-0.1.2",
      "packageUri": "lib/",
      "languageVersion": "2.3"
    },
    {
      "name": "xml",
      "rootUri": "file:///Users/aseril/Developer/flutter/.pub-cache/hosted/pub.dartlang.org/xml-4.5.1",
      "packageUri": "lib/",
      "languageVersion": "2.7"
    },
    {
      "name": "yaml",
      "rootUri": "file:///Users/aseril/Developer/flutter/.pub-cache/hosted/pub.dartlang.org/yaml-2.2.1",
      "packageUri": "lib/",
      "languageVersion": "2.4"
    },
    {
      "name": "flutter_listings",
      "rootUri": "../",
      "packageUri": "lib/",
      "languageVersion": "2.7"
    }
  ],
  "generated": "2020-12-13T23:37:29.912876Z",
  "generator": "pub",
  "generatorVersion": "2.10.3"
}
